Assignment-2.utf8.md
…
## Parsed with column specification:
## cols(
##   tid = col_character(),
##   stid = col_double(),
##   s.gender = col_character(),
##   s.major = col_character(),
##   t.gender = col_character(),
##   t.expertise = col_character()
## )

D1

## # A tibble: 56 x 6
##    tid    stid s.gender s.major t.gender t.expertise
##    <chr> <dbl> <chr>    <chr>   <chr>    <chr>      
##  1 E        21 female   art     female   art        
##  2 A         4 male     math    female   biology    
##  3 A        25 male     biology female   biology    
##  4 E        15 female   english female   art        
##  5 D         1 male     biology female   art        
##  6 E         8 male     english female   art        
##  7 B         8 male     english male     math       
##  8 E        25 male     biology female   art        
##  9 A        25 male     biology female   biology    
## 10 C        10 male     art     male     biology    
## # ... with 46 more rows
…
